

{
  "name": "environment",
  "plural": "environments",
  "base": "PersistedModel",
  "idInjection": true,
  "options": {
    "validateUpsert": true
  },
  "properties": {
    "name": {
      "type": "string",
      
    },
    "numInstances": {
      "type": "number",
      
    },
    "numMaster": {
      "type": "number",
      
    },
    "publicAddresses": {
      "type": [
        "string"
      ],
      
    },
    "baseImage": {
      "type": "string",
      
    },
    "volumes": {
      "type": "object",
      
    },

    "admin": {
      "type": "string"
    },
    "description": {
      "type": "string"
    },
    "volume_size": {
      "type": "number"
    }
  },

  "validations": [],
  "relations": {
    "services": {
      "type": "hasMany",
      "model": "docker_service",
      "foreignKey": ""
    }
    },
  "acls": [],
  "methods": []
}
